   Private Sub newTrans_Click(sender As Object, e As EventArgs) Handles newTrans.Click
        If CheckBox1.Checked = True Then
            itemsForm.Show()
            Me.Hide()
        Else
            If CheckBox2.Checked = True Then
                inForm.Show()
                Me.Hide()
            End If

        End If
End Sub